<svg xmlns="http://www.w3.org/2000/svg" width="16" height="16" viewBox="0 0 16 16">
  <defs>
    <style>.a{fill:#555;}</style>
  </defs>
  <path class="a" d="M-1508.5,16a1.5,1.5,0,0,1-1.5-1.5V1.5a1.5,1.5,0,0,1,1.5-1.5h13a1.5,1.5,0,0,1,1.5,1.5v13a1.5,1.5,0,0,1-1.5,1.5Zm-.5-14.5v13a.5.5,0,0,0,.5.5h13a.5.5,0,0,0,.5-.5V1.5a.5.5,0,0,0-.5-.5h-13A.5.5,0,0,0-1509,1.5Zm5.5,8.5a.5.5,0,0,1-.5-.5.5.5,0,0,1,.5-.5h3a.5.5,0,0,1,.5.5.5.5,0,0,1-.5.5Zm-2-3a.5.5,0,0,1-.5-.5.5.5,0,0,1,.5-.5h7a.5.5,0,0,1,.5.5.5.5,0,0,1-.5.5Z" transform="translate(1510)"/>
</svg>
