<svg xmlns="http://www.w3.org/2000/svg" width="32" height="32" viewBox="0 0 32 32">
  <defs>
    <style>.a{fill:#fff;}.b{fill:#f39c12;}</style>
  </defs>
  <g transform="translate(-294 -179)">
    <rect class="a" width="32" height="32" rx="16" transform="translate(294 179)"/>
    <path class="b" d="M10.891,39.25,6.266,43.891a.375.375,0,0,1-.531,0L1.109,39.25a.375.375,0,0,1,0-.531l.222-.222a.375.375,0,0,1,.531,0l3.606,3.625V32.375A.376.376,0,0,1,5.844,32h.313a.376.376,0,0,1,.375.375v9.747L10.137,38.5a.375.375,0,0,1,.531,0l.222.222A.372.372,0,0,1,10.891,39.25ZM12,45.625v-.25A.376.376,0,0,0,11.625,45H.375A.376.376,0,0,0,0,45.375v.25A.376.376,0,0,0,.375,46h11.25A.376.376,0,0,0,12,45.625Z" transform="translate(304 156)"/>
  </g>
</svg>
