<svg xmlns="http://www.w3.org/2000/svg" width="14" height="16" viewBox="0 0 14 16">
  <defs>
    <style>.a{fill:#555;}</style>
  </defs>
  <path class="a" d="M5,5.25V3.75A.748.748,0,0,0,4.25,3H3V.25A.251.251,0,0,0,2.75,0h-.5A.251.251,0,0,0,2,.25V3H.75A.748.748,0,0,0,0,3.75v1.5A.748.748,0,0,0,.75,6H2v9.75a.251.251,0,0,0,.25.25h.5A.251.251,0,0,0,3,15.75V6H4.25A.748.748,0,0,0,5,5.25ZM4,5H1V4H4Zm4.75,5H7.5V.25A.251.251,0,0,0,7.25,0h-.5A.251.251,0,0,0,6.5.25V10H5.25a.748.748,0,0,0-.75.75v1.5a.748.748,0,0,0,.75.75H6.5v2.75a.251.251,0,0,0,.25.25h.5a.251.251,0,0,0,.25-.25V13H8.75a.748.748,0,0,0,.75-.75v-1.5A.748.748,0,0,0,8.75,10ZM8.5,12h-3V11h3Zm4.75-7H12V.25A.251.251,0,0,0,11.75,0h-.5A.251.251,0,0,0,11,.25V5H9.75A.748.748,0,0,0,9,5.75v1.5A.748.748,0,0,0,9.75,8H11v7.75a.251.251,0,0,0,.25.25h.5a.251.251,0,0,0,.25-.25V8h1.25A.748.748,0,0,0,14,7.25V5.75A.748.748,0,0,0,13.25,5ZM13,7H10V6h3Z"/>
</svg>
